WIDTH=32;
DEPTH=8192;
ADDRESS_RADIX=HEX;
DATA_RADIX=HEX;

CONTENT BEGIN
	00000000  :   00000000;
	00000001  :   00000000;
	00000002  :   00000000;
	00000003  :   00000000;
	00000004  :   00000000;
	00000005  :   00000000;
	00000006  :   00000000;
	00000007  :   00000000;
	00000008  :   00000000;
	00000009  :   00000000;
	0000000A  :   00000000;
	0000000B  :   00000000;
	0000000C  :   00000000;
	0000000D  :   00000000;
	0000000E  :   00000000;
	0000000F  :   00000000;
	00000010  :   00000000;
	00000011  :   00000000;
	00000012  :   00000000;
	00000013  :   00000000;
	00000014  :   00000000;
	00000015  :   00000000;
	00000016  :   00000000;
	00000017  :   00000000;
	00000018  :   00000000;
	00000019  :   00000000;
	0000001A  :   00000000;
	0000001B  :   00000000;
	0000001C  :   00000000;
	0000001D  :   00000000;
	0000001E  :   00000000;
	0000001F  :   00000000;
	00000020  :   00000000;
	00000021  :   00000000;
	00000022  :   00000000;
	00000023  :   00000000;
	00000024  :   00000000;
	00000025  :   00000000;
	00000026  :   00000000;
	00000027  :   00000000;
	00000028  :   00000000;
	00000029  :   00000000;
	0000002A  :   00000000;
	0000002B  :   00000000;
	0000002C  :   00000000;
	0000002D  :   00000000;
	0000002E  :   00000000;
	0000002F  :   00000000;
	00000030  :   00000000;
	00000031  :   00000000;
	00000032  :   00000000;
	00000033  :   00000000;
	00000034  :   00000000;
	00000035  :   00000000;
	00000036  :   00000000;
	00000037  :   00000000;
	00000038  :   00000000;
	00000039  :   00000000;
	0000003A  :   00000000;
	0000003B  :   00000000;
	0000003C  :   00000000;
	0000003D  :   00000000;
	0000003E  :   00000000;
	0000003F  :   00000000;
	00000040  :   18200000;
	00000041  :   A82130A8;
	00000042  :   9C40FFFD;
	00000043  :   E0211003;
	00000044  :   18400000;
	00000045  :   A8422044;
	00000046  :   44001000;
	00000047  :   9C400000;
	00000048  :   44004800;
	00000049  :   15000000;
	[0000004A..000007FF]  :   00000000;
	00000800  :   84630000;
	00000801  :   BD830001;
	00000802  :   1000000D;
	00000803  :   15000000;
	00000804  :   84E50000;
	00000805  :   85060000;
	00000806  :   E0E83800;
	00000807  :   D4043800;
	00000808  :   9CA50004;
	00000809  :   9CC60004;
	0000080A  :   9C840004;
	0000080B  :   9C63FFFF;
	0000080C  :   BC230000;
	0000080D  :   13FFFFF7;
	0000080E  :   15000000;
	0000080F  :   44004800;
	00000810  :   15000000;
	00000811  :   D7E117FC;
	00000812  :   9C410000;
	00000813  :   9C21FDF8;
	00000814  :   9C600080;
	00000815  :   D7E21FF8;
	00000816  :   9C62FFF8;
	00000817  :   18800008;
	00000818  :   A8841600;
	00000819  :   18A00008;
	0000081A  :   A8A50600;
	0000081B  :   18C00008;
	0000081C  :   A8C60E00;
	0000081D  :   E0601800;
	0000081E  :   E0802000;
	0000081F  :   E0A02800;
	00000820  :   E0C03000;
	00000821  :   07FFFFDF;
	00000822  :   15000000;
	00000823  :   44000000;
	00000824  :   15000000;
	00000825  :   9C600000;
	00000826  :   A9630000;
	00000827  :   A8220000;
	00000828  :   8441FFFC;
	00000829  :   44004800;
	0000082A  :   15000000;
	[0000082B..00001FFF]  :   00000000;
END
